module multipart

go 1.18

require (
	github.com/gin-gonic/gin v1.9.0
	github.com/go-chi/chi/v5 v5.0.8
	github.com/go-chi/docgen v1.2.0
	github.com/go-chi/render v1.0.2
	github.com/go-openapi/errors v0.20.3
	github.com/go-openapi/loads v0.21.2
	github.com/go-openapi/runtime v0.26.0
	github.com/go-openapi/spec v0.20.9
	github.com/go-openapi/strfmt v0.21.7
	github.com/go-openapi/swag v0.22.3
	github.com/go-openapi/validate v0.22.1
	github.com/jessevdk/go-flags v1.5.0
	gitlab.com/Rokzish/go-kata v0.0.0-20230419184451-6393f83f93ec
	golang.org/x/net v0.7.0
)

require (
	github.com/ajg/form v1.5.1 // indirect
	github.com/asaskevich/govalidator v0.0.0-20230301143203-a9d515a09cc2 // indirect
	github.com/bytedance/sonic v1.8.0 // indirect
	github.com/chenzhuoyu/base64x v0.0.0-20221115062448-fe3a3abad311 // indirect
	github.com/docker/go-units v0.5.0 // indirect
	github.com/gin-contrib/sse v0.1.0 // indirect
	github.com/go-openapi/analysis v0.21.4 // indirect
	github.com/go-openapi/jsonpointer v0.19.5 // indirect
	github.com/go-openapi/jsonreference v0.20.0 // indirect
	github.com/go-playground/locales v0.14.1 // indirect
	github.com/go-playground/universal-translator v0.18.1 // indirect
	github.com/go-playground/validator/v10 v10.11.2 // indirect
	github.com/goccy/go-json v0.10.0 // indirect
	github.com/josharian/intern v1.0.0 // indirect
	github.com/json-iterator/go v1.1.12 // indirect
	github.com/klauspost/cpuid/v2 v2.0.9 // indirect
	github.com/leodido/go-urn v1.2.1 // indirect
	github.com/mailru/easyjson v0.7.7 // indirect
	github.com/mattn/go-isatty v0.0.17 // indirect
	github.com/mitchellh/mapstructure v1.5.0 // indirect
	github.com/modern-go/concurrent v0.0.0-20180228061459-e0a39a4cb421 // indirect
	github.com/modern-go/reflect2 v1.0.2 // indirect
	github.com/oklog/ulid v1.3.1 // indirect
	github.com/pelletier/go-toml/v2 v2.0.6 // indirect
	github.com/twitchyliquid64/golang-asm v0.15.1 // indirect
	github.com/ugorji/go/codec v1.2.9 // indirect
	go.mongodb.org/mongo-driver v1.11.3 // indirect
	golang.org/x/arch v0.0.0-20210923205945-b76863e36670 // indirect
	golang.org/x/crypto v0.5.0 // indirect
	golang.org/x/sys v0.5.0 // indirect
	golang.org/x/text v0.7.0 // indirect
	google.golang.org/protobuf v1.28.1 // indirect
	gopkg.in/yaml.v3 v3.0.1 // indirect
)
